[gd_scene load_steps=3 format=2]

[ext_resource path="res://TileMaps/MainMap.tres" type="TileSet" id=1]
[ext_resource path="res://Scripts/MainMap.gd" type="Script" id=2]

[node name="MainMap" type="TileMap"]

mode = 0
tile_set = ExtResource( 1 )
cell_size = Vector2( 32, 32 )
cell_quadrant_size = 16
cell_custom_transform = Transform2D( 1, 0, 0, 1, 0, 0 )
cell_half_offset = 2
cell_tile_origin = 0
cell_y_sort = false
cell_clip_uv = false
collision_use_kinematic = false
collision_friction = 1.0
collision_bounce = 0.0
collision_layer = 1
collision_mask = 1
occluder_light_mask = 1
format = 1
tile_data = PoolIntArray(  )
script = ExtResource( 2 )
_sections_unfolded = [ "Cell" ]


